loadscript BorraScripts

scriptsString = ""

for name in script.user.catalog() do
    scriptsString = scriptsString .. name .. " "
end

scriptsList = string.sub(scriptsString, 1, -2)

scriptToDelete = display.menu("Which script?", scriptsList)

confirmation = display.menu("Delete ".. scriptToDelete, "No Yes")

if confirmation == "Yes" then
    script.delete(scriptToDelete)
end

endscript
